UCLA PoliSci Methods Mavens Resources: R Bootcamp #3 - Summarizing Data with the Tidyverse
…
# Same as:
select(df, body_mass_g)

# In base R:
df[,"body_mass_g"]

# Alternatively:
df$body_mass_g

You can also select more than one variable, a range of variables, or omit certain variables:

# select species and body_mass_g
df %>% select(species, body_mass_g)

# A tibble: 344 x 2
   species body_mass_g
   <fct>         <int>
 1 Adelie         3750
 2 Adelie         3800
 3 Adelie         3250
 4 Adelie           NA
 5 Adelie         3450
 6 Adelie         3650
 7 Adelie         3625
 8 Adelie         4675
 9 Adelie         3475
10 Adelie         4250
# ... with 334 more rows

# select variables bill_length_mm through flipper_length_mm
df %>% select(bill_length_mm:flipper_length_mm)

# A tibble: 344 x 3
   bill_length_mm bill_depth_mm flipper_length_mm
            <dbl>         <dbl>             <int>
 1           39.1          18.7               181
 2           39.5          17.4               186
 3           40.3          18                 195
 4           NA            NA                  NA
 5           36.7          19.3               193
 6           39.3          20.6               190
 7           38.9          17.8               181
 8           39.2          19.6               195
 9           34.1          18.1               193
10           42            20.2               190
# ... with 334 more rows

# select everything but year
df %>% select(-year)

# A tibble: 344 x 7
   species island    bill_length_mm bill_depth_mm flipper_length_mm
   <fct>   <fct>              <dbl>         <dbl>             <int>
 1 Adelie  Torgersen           39.1          18.7               181
 2 Adelie  Torgersen           39.5          17.4               186
 3 Adelie  Torgersen           40.3          18                 195
 4 Adelie  Torgersen           NA            NA                  NA
 5 Adelie  Torgersen           36.7          19.3               193
 6 Adelie  Torgersen           39.3          20.6               190
 7 Adelie  Torgersen           38.9          17.8               181
 8 Adelie  Torgersen           39.2          19.6               195
 9 Adelie  Torgersen           34.1          18.1               193
10 Adelie  Torgersen           42            20.2               190
# ... with 334 more rows, and 2 more variables: body_mass_g <int>,
#   sex <fct>

Additionally, you can select based on characteristics of the variables names, such as containing “length” or starting with “bill”:

# select variables that contain "length"
df %>% select(contains("length"))

# A tibble: 344 x 2
   bill_length_mm flipper_length_mm
            <dbl>             <int>
 1           39.1               181
 2           39.5               186
 3           40.3               195
 4           NA                  NA
 5           36.7               193
 6           39.3               190
 7           38.9               181
 8           39.2               195
 9           34.1               193
10           42                 190
# ... with 334 more rows

# select variables beginning with "bill"
df %>% select(starts_with("bill"))

# A tibble: 344 x 2
   bill_length_mm bill_depth_mm
            <dbl>         <dbl>
 1           39.1          18.7
 2           39.5          17.4
 3           40.3          18  
 4           NA            NA  
 5           36.7          19.3
 6           39.3          20.6
 7           38.9          17.8
 8           39.2          19.6
 9           34.1          18.1
10           42            20.2
# ... with 334 more rows
…
